%YAML 1.1
%TAG !u! tag:unity3d.com,2011:
--- !u!78 &1
TagManager:
  serializedVersion: 2
  tags:
  - GameScreen
  - MeatballLauncher
  - Viking
  - Pterodactyl
  - Meatball
  - floor
  - PterodactylEgg
  - MeatballHook
  - finishLine
  layers:
  - Default
  - TransparentFX
  - Ignore Raycast
  - 
  - Water
  - UI
  - 
  - 
  - shadowPhysics
  - 
  - pterodactyl
  - vikings
  - 
  - balista
  - 
  - 
  - 
  - 
  - 
  - bkg
  - 
  - 
  - 
  - 
  - 
  - 
  - 
  - 
  - 
  - 
  - 
  - 
  m_SortingLayers:
  - name: Default
    uniqueID: 0
    locked: 0
  - name: clickable
    uniqueID: 2400207139
    locked: 0
